# Blender v2.71 (sub 0) OBJ File: ''
# www.blender.org
mtllib stick1.mtl
o Cube_Cube.002
v -1.210000 -0.140000 0.140000
v -1.210000 -0.140000 -0.140000
v 1.210000 -0.140000 -0.140000
v 1.210000 -0.140000 0.140000
v -1.210000 0.140000 0.140000
v -1.210000 0.140000 -0.140000
v 1.210000 0.140000 -0.140000
v 1.210000 0.140000 0.140000
usemtl None
s off
f 5 6 2 1
f 6 7 3 2
f 7 8 4 3
f 8 5 1 4
f 1 2 3 4
f 8 7 6 5
